{
  "-MdkrOSUJjWuR5l7yjfQ" : {
    "date" : 1625391212748,
    "userHadir" : "",
    "userMsg" : "Selamat ya kak atas pernikahannya! Semoga jadi keluarga bahagia sakinah mawaddah wa rohmah😊",
    "userName" : "Admin nikaah.id"
  },
  "-Mdouq5QDDkMApAMdqZz" : {
    "date" : 1625459302861,
    "userHadir" : "",
    "userMsg" : "Hmm, gk nyangka hari ini bakal tiba juga, klian berdua udh menemukan pilihan yg terbaik, dedek yg pertama d susul sma kamu mbem. Do'akan aku cpet menyusul juga. Bahagia dan sehat slalu yaa, smga samawa, aamiin. Segera dikaruniai keturunan yg sholeh sholehah. Aamiin, maafkan blm bsa hadir d hari bahagia, karena sikon yg tdak berpihak 😢😢😢",
    "userName" : "dr. Meisaroh"
  },
  "-Mdp3xiHniFbd-H_sdKc" : {
    "date" : 1625461873488,
    "userHadir" : "",
    "userMsg" : "Upiww selamat yaaa 😍😍",
    "userName" : "Rizkyaputri"
  },
  "-MdqVNwt7SQpE3fRO6bz" : {
    "date" : 1625485840349,
    "userHadir" : "",
    "userMsg" : "Waaah.. kaget aku Tuuu\nTerharuuuuu\nBahagia terus ya upi nya akuuuuu\nSemoga menjadi keluarga yang samawa 🙏🏻",
    "userName" : "dr. Bella Turnip"
  },
  "-MdqX8Jg_6ulvintFW9p" : {
    "date" : 1625486299460,
    "userHadir" : "",
    "userMsg" : "buat ufi selamat yah semoga lancar sampe hari  yah",
    "userName" : "tami"
  },
  "-MdqXDgepHPYn-KSQXpt" : {
    "date" : 1625486320650,
    "userHadir" : "",
    "userMsg" : "Barokallah Mba Uphi.... Selamat ya, semoga lancar kedepannya dan dijadikan keluarga yang sakinah mawaddah warohmah. 😇",
    "userName" : "Khalimatus Sa'diyah "
  },
  "-MdqXaPRin1bNCoPPvH1" : {
    "date" : 1625486419728,
    "userHadir" : "",
    "userMsg" : "Masyallah mbem ku ❤️ Kesayangan ku . Semoga bahagia selalu dunia  hingga akhirat. Akhirnya wanita yang mengemaskan ini akhirnya melabuhkan hatinya . Love you so much mbem ❤️❤️❤️",
    "userName" : "Dedek"
  },
  "-MdqddILcOGiIPiNWR4F" : {
    "date" : 1625488268344,
    "userHadir" : "",
    "userMsg" : "Selamat menempuh hidup baru sobat\nSemoga menjadi keluarga yg sakinah, mawaddah, & warohmah.\nAamiin...",
    "userName" : "Candra Gunawan, S.Pd"
  },
  "-MdqdgGIRx4XnzU2rjGH" : {
    "date" : 1625488279243,
    "userHadir" : "",
    "userMsg" : "Barokallohulaka wabaroka 'alaika wajama'a bainakumaa fii khoiir.. semoga lancar ya fiiii.. jd klg sakinah mawaddah warohmah 🤗🤗🤗",
    "userName" : "Annisa syifaunnajah"
  },
  "-MdqgdTQ7BrvtvqDnev6" : {
    "date" : 1625489052710,
    "userHadir" : "",
    "userMsg" : "Selamat kawan, mudah-mudahan Allah memberkahimu, baik dalam suka maupun duka dan selalu mengumpulkan kamu berdua pada kebaikan, selamat kawan\n\nSalam dari kawan lama fian",
    "userName" : "Nuralfian subechi"
  },
  "-MdqiAQD_ageo1oH-Z2P" : {
    "date" : 1625489453370,
    "userHadir" : "",
    "userMsg" : "Selamat menikah untuk dr.Lutfhi dan suami... Semoga pernikahan nya berjalan dengan lancar. Bisa menjadi keluarga yg bahagia dunia akhirat, diberi keturunan yg sholeh/sholihah dan selalu diberkahi oleh Allah SWT. Amin...",
    "userName" : "dr. Umar"
  },
  "-Mdqopb020lzOGZCdQ30" : {
    "date" : 1625491200128,
    "userHadir" : "",
    "userMsg" : "Selmat bu dr.lutfhi dan suami..semoga menjadi keluarga sakinah, mawadah , warohmah.",
    "userName" : "Dudung Zulkipli"
  },
  "-MdqqkzqJky20Zd-G0g1" : {
    "date" : 1625491705326,
    "userHadir" : "",
    "userMsg" : "Selamat yaa upii .. Semoga menjadi keluarga yang sakkinahmawadahwarrahmah yaa .. Semoga cepat mendapatkan keturunan yg menggemaskan ya upii.. Selamat berbahagia ya 🤗🙆",
    "userName" : "Dewi Mutia"
  },
  "-MdqtRq1U_5VltYKKVZp" : {
    "date" : 1625492409873,
    "userHadir" : "",
    "userMsg" : "Selamat lutfi dan suami,, semoga dilancarkan acaranyaa.. menjadi keluarga yg samawa, bahagia dunia akhirat, dan cepat diberi momongan sholeh dan sholehah ❤️❤️",
    "userName" : "Arkina"
  },
  "-Mdr-sC1uMF3YSWqVe8j" : {
    "date" : 1625494355556,
    "userHadir" : "",
    "userMsg" : "Selamat ya uphie,\nSemoga menjadi keluarga yg sakinah mawadah dan warohmah..",
    "userName" : "Carief"
  },
  "-Mdr5V5UCqbVuLiqX9FU" : {
    "date" : 1625495829551,
    "userHadir" : "",
    "userMsg" : "Upiii..semoga jadi keluarga samawa, langgeng teruss,semoga dikarunia keturunan yang sholeh&sholeha yaaaaaaa...💜",
    "userName" : "dr mayang"
  },
  "-Mdr61OlyFH9lPG3-eAs" : {
    "date" : 1625495971546,
    "userHadir" : "",
    "userMsg" : "Wahh congrats abang ziaaa semoga jadi keluarga yang samawa, maap nih gabisa dateng lagi di lockdown :((",
    "userName" : "Maul"
  },
  "-Mdr7WlVc0uuXujvbf5z" : {
    "date" : 1625496366521,
    "userHadir" : "",
    "userMsg" : "Selamaaat Luthfi dan Zia, semoga lancar selalu sampai hari H. Sakinnah mawaddah warahmah, samawa yaa 😁",
    "userName" : "Syaokat & Hanum"
  },
  "-Mdr7mwg1XGQoS8UVdCZ" : {
    "date" : 1625496433642,
    "userHadir" : "",
    "userMsg" : "Mba lutfi.. alhamdulillah... selamat yaa.. semoga pernikahannya penuh keberkahan.. sakinah mawahdah warohmah..  banyak rejeki dan penuh kebahagiaan... ",
    "userName" : "Drg. Sri widyana"
  },
  "-MdrH3aEtraiP7SN6zzm" : {
    "date" : 1625498862728,
    "userHadir" : "",
    "userMsg" : "Baarakallahulaka wa baaraka'alaika wa jama'abainakuma fii Khoir..\nSlmt ya upi..semoga kehidupan pernikahannya penuh berkah..",
    "userName" : "Mediska Arta"
  },
  "-MdrMSafJRWMfeIzCGZ1" : {
    "date" : 1625500278119,
    "userHadir" : "",
    "userMsg" : "Selamat ya nduk, smoga lancar acaranya. Jd keluarga yang harmonis, sakinah mawadah warohmah. Ammin",
    "userName" : "Annisa Nurfitriana"
  },
  "-MdrT4zJh_7zLmeE7kOE" : {
    "date" : 1625502015006,
    "userHadir" : "",
    "userMsg" : "Barakallah... selamat menjalani ibadah terpanjang onty dan om.... lancar-lancar acaranya, ditunggu honeymoon ke Jogjanya ❤️❤️❤️",
    "userName" : "Mumtaz"
  },
  "-Mdt3DAfswDaeKBwbgjP" : {
    "date" : 1625528787577,
    "userHadir" : "",
    "userMsg" : "MashaAllah, barokalloh ufiii🥰 semoga lancar sampe hari H dan seterusnya jadi keluarga yang bahagia dan diberkahi anak yg sholeh&sholehah Amiiin ",
    "userName" : "IRul & Aldent "
  },
  "-MdtJDyjhr1r8AlcyXaC" : {
    "date" : 1625532984409,
    "userHadir" : "",
    "userMsg" : "masyaallah😍 selamat berbahagia kak upiii💙\nsemoga menjadi keluarga yang samawa selalu bahagia, dijauhkan dari keburukan dan cepet punyaa kak upi junior🥰🥰",
    "userName" : "Lia Hardiana"
  },
  "-MdtSf8De-q05Z5h0q0q" : {
    "date" : 1625535459473,
    "userHadir" : "",
    "userMsg" : "Barakallahu lakuma wabaraka bainakuma fii khaiir.. \nSelamat menempuh hidup baru, dr Luthfi dan Zia.. \nSemoga sakinah mawaddah warrahmah dan Allah karuniakan generasi yang cerdas, beriman dan berguna bagi nusa dan bangsa aamiin YRA 😇",
    "userName" : "Luvi & Malik "
  },
  "-MdtVicQZELvMBQWz_rD" : {
    "date" : 1625536260763,
    "userHadir" : "",
    "userMsg" : "Wah! Alhamdulillah, selamat Pi. Semoga lancar dan menjadi keluarga yang sakinah mawaddah warahmah :))",
    "userName" : "Afan & istri"
  },
  "-MdtmMz59AmX4n_Pmb2s" : {
    "date" : 1625540883923,
    "userHadir" : "",
    "userMsg" : "Barakallahu upi.. semoga bahagia selalu.. dilancarkan segala urusannya.. aamiin :)",
    "userName" : "Alfiah"
  },
  "-Mdu3xQrDOncNtSY_eIy" : {
    "date" : 1625545758554,
    "userHadir" : "",
    "userMsg" : "Alhamdulillah…Upi semoga lancar dekku💛  bahagia terus sampe nini aki ya Upi & Zia🤗😇",
    "userName" : "Ade Minara"
  },
  "-MdxxpQkRakO9gdq3Dc2" : {
    "date" : 1625610999658,
    "userHadir" : "",
    "userMsg" : "Alhamdulillah upiiii, selamat yaa, semoga menjadi keluarga yang sakinah mawadah warahmah, bahagia selalu yaaaa upiiii 😘😇",
    "userName" : "Rizk Dwi"
  },
  "-MdyhZJhASiDnDAjJiCv" : {
    "date" : 1625623507715,
    "userHadir" : "",
    "userMsg" : "Pii...\nAlhamdulillah..\nSemoga acaranya lancar yaa pii..\nBerkah semuanyaa..❤️\n",
    "userName" : "Cici setiani"
  },
  "-Mdymzt740b5nYgOs36n" : {
    "date" : 1625624935378,
    "userHadir" : "",
    "userMsg" : "Selamat M. Zia semoga bisa mengemban amanah menjadi kepala keluarga yang bijaksana",
    "userName" : "Pandu Hesma Adi Wijaya"
  },
  "-MdywoR-ircV_ENJjXSI" : {
    "date" : 1625627511431,
    "userHadir" : "",
    "userMsg" : "Alhamdulilah... ka upi, lancar sampai hari H ya, bagaia liatnya🥺🥺🥺 semoga menjadi keluarga yg bahagia dunia akhirat ka😍",
    "userName" : "Astrid"
  },
  "-Mdz3Aa0uUes9BU1aDZL" : {
    "date" : 1625629440794,
    "userHadir" : "",
    "userMsg" : "selmt  yaa fii smga lncr acranya smpi hri H bgia slalu sma suamii samawa smga cpt dpt momongan👶sorry  ngga bisa hdir krn Kita terpisah jarak dn waktu yg Sangatt jauh😢😭😊💕",
    "userName" : "tania"
  },
  "-MdzErFcHSHNrPOPxSmU" : {
    "date" : 1625632502237,
    "userHadir" : "",
    "userMsg" : "Happy wedding upi dan suami. Lancar acaranya yaaa, semoga pernikahannya samawa Aminnnn😇😇",
    "userName" : "Hapsari rianingtyas"
  },
  "-MdzIvsWxtqFE1cXGX2H" : {
    "date" : 1625633570913,
    "userHadir" : "",
    "userMsg" : "Selamat ya de Luthfi dan mas zia,semoga lancar acaranya smpe hari H,menjadi keluarga yg sakinah mawadah warahmah",
    "userName" : "Citra Angga sari "
  },
  "-Mdz_jqvu-d4xmPoqV5P" : {
    "date" : 1625638239967,
    "userHadir" : "",
    "userMsg" : "Alhamdulilah, barakallah upi 🤗🤗 semoga menjadi keluarga yang sakinah mawaddah dan warahmah aamiin ya rabbal alamiin ",
    "userName" : "Sekar"
  },
  "-Me0JnSqrkXaTqCNNPYn" : {
    "date" : 1625667352219,
    "userHadir" : "",
    "userMsg" : "Masya Allah Uphi, selamat menempuh hidup yang baru, selamat mengarungi bahtera rumah tangga dengan suami. Smga selalu dikeliling kebahagian menjadi keluarga yang sakinah, mawadah, warokhmah. Aamiin Allahuma Aamiin 🤗😍",
    "userName" : "Yusiiiiii"
  },
  "-Me2UWeTotylSzjsxQ9j" : {
    "date" : 1625703716645,
    "userHadir" : "",
    "userMsg" : "Selamat menempuh hidup baru uphi & suami..\nSemoga menjadi keluarga yng sakinah mawaddah dan warrahmah sampai kakek nenek. Amiinn",
    "userName" : "dr. Yayah & dr. Nanang"
  },
  "-Me3ULttMnKBZhkbVIWS" : {
    "date" : 1625720451671,
    "userHadir" : "",
    "userMsg" : "alhamdulillah upi otw halal 😍😍 semoga pernikahan kalian berdua sakinah mawadah warohmah, cepat dikasih momongan aamiin.\nga nyangka jodohnya orang deket ya piiii🤗🥰",
    "userName" : "arinda batari"
  },
  "-MeCKCDGmZj8rK_6Z9LR" : {
    "date" : 1625868785757,
    "userHadir" : "",
    "userMsg" : "Mba upi, selamaaattt akhirnya yaaaa.. bismilllah lancar, semoga menjadi keluarga sakinah, mawaddah, warahmah. Aamiin ✨",
    "userName" : "Aulia Intan"
  },
  "-MeD4Mu1Z01g287u37xs" : {
    "date" : 1625881410355,
    "userHadir" : "",
    "userMsg" : "Selamat ya deeek, semoga sakinah mawaddah wa rahmah… ditunggu segera keponakannya ya… \n\nMaaf kondisinya kurang mendukung buat bisa hadir, sehat-sehat & bahagia selalu ya… ",
    "userName" : "Kariz"
  },
  "-MeDFeJYbLIuLpUXLaPF" : {
    "date" : 1625884370399,
    "userHadir" : "",
    "userMsg" : "Selamat menempuh hidup baru dr. Luthfi dan suami mudah-mudahan pernikahannya sakinnah mawaddah warrahmah dan cepat punya momongan ya aamiin",
    "userName" : "Mitra"
  },
  "-MeEOGAWrEd0kJ0lhJxQ" : {
    "date" : 1625903403439,
    "userHadir" : "",
    "userMsg" : "بَارَكَ اللَّهُ لَكَ وَبَارَكَ عَلَيْكَ وَجَمَعَ بَيْنَكُمَا فِيْ خَيْرٍ\nSemoga jadi keluarga samawa dan segera diberikan keturunan yang sholeh dan sholehah, bahagia dunia akhirat.\nMaaf ga bisa datang langsung pi, karena tugas negara jadi ga bisa pulang ke rumah 🙏",
    "userName" : "Anis Okhimiasih"
  },
  "-MeFagIHc7vxOj0CLWFm" : {
    "date" : 1625923698849,
    "userHadir" : "",
    "userMsg" : "Selamat ya upi jadi keluarga samawa 😇",
    "userName" : "Dewi ps"
  },
  "-Mf5AjBUCXeMPerXPhTM" : {
    "date" : 1626822603428,
    "userHadir" : "",
    "userMsg" : "Samawa ndan🤲, \nSemoga cepet dimei momongan😁",
    "userName" : "Irfan Fauzi (Ucil) "
  }
}
